{

    "1": [{
            "packName": "res",
            "zipPath": ""
        },
        {
            "packName": "unity",
            "zipPath": ""
        },
        {
            "packName": "sound",
            "zipPath": ""
        }
    ]

}